D:\LocalRepositories\firstspringproject\src\main\java\hello\GreetingController.java
D:\LocalRepositories\firstspringproject\src\main\java\hello\Application.java
D:\LocalRepositories\firstspringproject\src\main\java\hello\Greeting.java
